{
  "DatosDeClientes": [
    {
	  "Cedula": "1351549215",             
	  "Nombres": "Santa Isabel",
      "Dirrecion": "Ciudadela 30 de Marzo",
      "Telefono": "0981616561",
      "Correo": "santaisabel@gmail.com"
    },
    {
	  "Cedula": "1351229220",
      "Nombres": "María Duque",
      "Dirrecion": "Parroquia San Antonio",
      "Telefono": "0985588889",
      "Correo": "mariaduque@gmail.com"
    },
    {
	  "Cedula": "1351449010",
      "Nombres": "Ariel Sebastian",
      "Dirrecion": "Ciudadela 6 de Diciembre",
      "Telefono": "0999991010",
      "Correo": "sebastian@gmail.com"
    },
    {
	 "Cedula": "1300058847",
      "Nombres": "Bryan David",
      "Dirrecion": "San Antonio - La Playita",
      "Telefono": "0921450688",
      "Correo": "david@gmail.com"
    },
    {
	  "Cedula": "1314593218",
      "Nombres": "Denisse Juliana",
      "Dirrecion": "Calle Pichincha",
      "Telefono": "0999120648",
      "Correo": "juliana@gmail.com"
    },
    {
	  "Cedula": "1351009215",
      "Nombres": "Vanessa Santa",
      "Dirrecion": "Ciudad Jardin",
      "Telefono": "0994714933",
      "Correo": "santa@gmail.com"
    },
    { 
	  "Cedula": "1175663331",
      "Nombres": "Eliana Mendoza",
      "Dirrecion": "Barrio San Antonio",
      "Telefono": "0925446224",
      "Correo": "elianammendoza@gmail.com"
    },
    { 
	  "Cedula": "1350145587",
      "Nombres": "Thiago Francisco",
      "Dirrecion": "Avenida Alberto",
      "Telefono": "0904155564",
      "Correo": "francisco@gmail.com"
    },
    {  
      "Cedula": "1350145587",
      "Nombres": "Rocio Durcal",
      "Dirrecion": "Av. Luis Naveda",
      "Telefono": "0914577100",
      "Correo": "durcal@gmail.com"
    },
    {
	  "Cedula": "1311540397",
      "Nombres": "Gema Vanessa",
      "Dirrecion": "25 de Diciembre",
      "Telefono": "0980156858",
      "Correo": "gema@gmail.com"
    }
  ]
}